%YAML 1.1
%TAG !u! tag:unity3d.com,2011:
--- !u!1 &913279328161940616
GameObject:
  m_ObjectHideFlags: 0
  m_CorrespondingSourceObject: {fileID: 0}
  m_PrefabInstance: {fileID: 0}
  m_PrefabAsset: {fileID: 0}
  serializedVersion: 6
  m_Component:
  - component: {fileID: 3617216297149689906}
  - component: {fileID: 1958010316}
  - component: {fileID: 3038230677815809382}
  m_Layer: 0
  m_Name: Projectile
  m_TagString: Untagged
  m_Icon: {fileID: 0}
  m_NavMeshLayer: 0
  m_StaticEditorFlags: 0
  m_IsActive: 1
--- !u!4 &3617216297149689906
Transform:
  m_ObjectHideFlags: 0
  m_CorrespondingSourceObject: {fileID: 0}
  m_PrefabInstance: {fileID: 0}
  m_PrefabAsset: {fileID: 0}
  m_GameObject: {fileID: 913279328161940616}
  m_LocalRotation: {x: 0, y: 0, z: 0, w: 1}
  m_LocalPosition: {x: 0, y: 0, z: 0}
  m_LocalScale: {x: 1, y: 1, z: 1}
  m_Children:
  - {fileID: 1443254918606905719}
  m_Father: {fileID: 0}
  m_RootOrder: 0
  m_LocalEulerAnglesHint: {x: 0, y: 0, z: 0}
--- !u!114 &1958010316
MonoBehaviour:
  m_ObjectHideFlags: 0
  m_CorrespondingSourceObject: {fileID: 0}
  m_PrefabInstance: {fileID: 0}
  m_PrefabAsset: {fileID: 0}
  m_GameObject: {fileID: 913279328161940616}
  m_Enabled: 1
  m_EditorHideFlags: 0
  m_Script: {fileID: 11500000, guid: 3a27cda962da9e74eacf6421c0e0c967, type: 3}
  m_Name: 
  m_EditorClassIdentifier: 
  movementSpeed: 20
--- !u!136 &3038230677815809382
CapsuleCollider:
  m_ObjectHideFlags: 0
  m_CorrespondingSourceObject: {fileID: 0}
  m_PrefabInstance: {fileID: 0}
  m_PrefabAsset: {fileID: 0}
  m_GameObject: {fileID: 913279328161940616}
  m_Material: {fileID: 0}
  m_IsTrigger: 1
  m_Enabled: 1
  m_Radius: 0.06
  m_Height: 0.9
  m_Direction: 2
  m_Center: {x: 0, y: 0, z: 0.16}
--- !u!1001 &1408995352590878364
PrefabInstance:
  m_ObjectHideFlags: 0
  serializedVersion: 2
  m_Modification:
    m_TransformParent: {fileID: 3617216297149689906}
    m_Modifications:
    - target: {fileID: -8679921383154817045, guid: cc0cfaf552bae0e47ad4418ae8d1fa35,
        type: 3}
      propertyPath: m_RootOrder
      value: 0
      objectReference: {fileID: 0}
    - target: {fileID: -8679921383154817045, guid: cc0cfaf552bae0e47ad4418ae8d1fa35,
        type: 3}
      propertyPath: m_LocalPosition.x
      value: -0
      objectReference: {fileID: 0}
    - target: {fileID: -8679921383154817045, guid: cc0cfaf552bae0e47ad4418ae8d1fa35,
        type: 3}
      propertyPath: m_LocalPosition.y
      value: 0
      objectReference: {fileID: 0}
    - target: {fileID: -8679921383154817045, guid: cc0cfaf552bae0e47ad4418ae8d1fa35,
        type: 3}
      propertyPath: m_LocalPosition.z
      value: 0
      objectReference: {fileID: 0}
    - target: {fileID: -8679921383154817045, guid: cc0cfaf552bae0e47ad4418ae8d1fa35,
        type: 3}
      propertyPath: m_LocalRotation.w
      value: 1
      objectReference: {fileID: 0}
    - target: {fileID: -8679921383154817045, guid: cc0cfaf552bae0e47ad4418ae8d1fa35,
        type: 3}
      propertyPath: m_LocalRotation.x
      value: 0.00000008146034
      objectReference: {fileID: 0}
    - target: {fileID: -8679921383154817045, guid: cc0cfaf552bae0e47ad4418ae8d1fa35,
        type: 3}
      propertyPath: m_LocalRotation.y
      value: -1.1102233e-16
      objectReference: {fileID: 0}
    - target: {fileID: -8679921383154817045, guid: cc0cfaf552bae0e47ad4418ae8d1fa35,
        type: 3}
      propertyPath: m_LocalRotation.z
      value: 1.1102236e-16
      objectReference: {fileID: 0}
    - target: {fileID: -8679921383154817045, guid: cc0cfaf552bae0e47ad4418ae8d1fa35,
        type: 3}
      propertyPath: m_LocalEulerAnglesHint.x
      value: 0
      objectReference: {fileID: 0}
    - target: {fileID: -8679921383154817045, guid: cc0cfaf552bae0e47ad4418ae8d1fa35,
        type: 3}
      propertyPath: m_LocalEulerAnglesHint.y
      value: 0
      objectReference: {fileID: 0}
    - target: {fileID: -8679921383154817045, guid: cc0cfaf552bae0e47ad4418ae8d1fa35,
        type: 3}
      propertyPath: m_LocalEulerAnglesHint.z
      value: 0
      objectReference: {fileID: 0}
    - target: {fileID: -7511558181221131132, guid: cc0cfaf552bae0e47ad4418ae8d1fa35,
        type: 3}
      propertyPath: m_Materials.Array.data[0]
      value: 
      objectReference: {fileID: 2100000, guid: 21742aa275647c74ea21b4b7e2ff871a, type: 2}
    - target: {fileID: 919132149155446097, guid: cc0cfaf552bae0e47ad4418ae8d1fa35,
        type: 3}
      propertyPath: m_Name
      value: Model
      objectReference: {fileID: 0}
    m_RemovedComponents: []
  m_SourcePrefab: {fileID: 100100000, guid: cc0cfaf552bae0e47ad4418ae8d1fa35, type: 3}
--- !u!4 &1443254918606905719 stripped
Transform:
  m_CorrespondingSourceObject: {fileID: -8679921383154817045, guid: cc0cfaf552bae0e47ad4418ae8d1fa35,
    type: 3}
  m_PrefabInstance: {fileID: 1408995352590878364}
  m_PrefabAsset: {fileID: 0}
